R Code for Chapter 3 of Introduction to Data Mining: Classification: Basic Concepts and Techniques
…
Note: data.frames in R can have row names. The Zoo data set uses the animal name as the row names. tibbles from tidyverse do not support row names. To keep the animal name you can add a column with the animal name.

as_tibble(Zoo, rownames = "animal")

## # A tibble: 101 x 18
##    animal  hair  feathers eggs  milk  airborne aquatic predator toothed backbone
##    <chr>   <lgl> <lgl>    <lgl> <lgl> <lgl>    <lgl>   <lgl>    <lgl>   <lgl>   
##  1 aardva TRUE  FALSE    FALSE TRUE  FALSE    FALSE   TRUE     TRUE    TRUE    
##  2 antelo TRUE  FALSE    FALSE TRUE  FALSE    FALSE   FALSE    TRUE    TRUE    
##  3 bass    FALSE FALSE    TRUE  FALSE FALSE    TRUE    TRUE     TRUE    TRUE    
##  4 bear    TRUE  FALSE    FALSE TRUE  FALSE    FALSE   TRUE     TRUE    TRUE    
##  5 boar    TRUE  FALSE    FALSE TRUE  FALSE    FALSE   TRUE     TRUE    TRUE    
##  6 buffalo TRUE  FALSE    FALSE TRUE  FALSE    FALSE   FALSE    TRUE    TRUE    
##  7 calf    TRUE  FALSE    FALSE TRUE  FALSE    FALSE   FALSE    TRUE    TRUE    
##  8 carp    FALSE FALSE    TRUE  FALSE FALSE    TRUE    FALSE    TRUE    TRUE    
##  9 catfish FALSE FALSE    TRUE  FALSE FALSE    TRUE    TRUE     TRUE    TRUE    
## 10 cavy    TRUE  FALSE    FALSE TRUE  FALSE    FALSE   FALSE    TRUE    TRUE    
## #  with 91 more rows, and 8 more variables: breathes <lgl>, venomous <lgl>,
## #   fins <lgl>, legs <int>, tail <lgl>, domestic <lgl>, catsize <lgl>,
## #   type <fct>
…
Note: Some splits use multiple values. Building the tree will become extremely slow if a factor has many levels (different values) since the tree has to check all possible splits into two subsets. This situation should be avoided.

Recode type as a set of 0-1 dummy variables using class2ind. See also ? dummyVars in package caret.

library(caret)
training_dummy <- as_tibble(class2ind(training$type)) %>% mutate_all(as.factor) %>%
  add_column(predator = training$predator)
training_dummy

## # A tibble: 83 x 8
##    mammal bird  reptile fish  amphibian insect mollusc.et.al predator
##    <fct>  <fct> <fct>   <fct> <fct>     <fct>  <fct>         <fct>   
##  1 1      0     0       0     0         0      0             TRUE    
##  2 1      0     0       0     0         0      0             FALSE   
##  3 0      0     0       1     0         0      0             TRUE    
##  4 1      0     0       0     0         0      0             TRUE    
##  5 1      0     0       0     0         0      0             TRUE    
##  6 1      0     0       0     0         0      0             FALSE   
##  7 0      0     0       1     0         0      0             FALSE   
##  8 0      0     0       1     0         0      0             TRUE    
##  9 1      0     0       0     0         0      0             TRUE    
## 10 0      1     0       0     0         0      0             FALSE   
## #  with 73 more rows
…
