2.1 The Iris Dataset | R Code Companion for the Textbook Introduction to Data Mining
…
References

2.1 The Iris Dataset

We will use a toy dataset that comes with R. Fisher’s iris data set gives the measurements in centimeters of the variables sepal length and width and petal length and width, respectively, for 50 flowers from each of 3 species of iris. The species are Iris setosa, versicolor, and virginica.
For more details see: ? iris

Load the iris data set and convert the data.frame into a tibble. Note: datasets that come with R or R packages can be loaded with data().

library(tidyverse)
data(iris)
iris <- as_tibble(iris)
iris

## # A tibble: 150 x 5
##    Sepal.Length Sepal.Width Petal.Length Petal.Width
##           <dbl>       <dbl>        <dbl>       <dbl>
##  1          5.1         3.5          1.4         0.2
##  2          4.9         3            1.4         0.2
##  3          4.7         3.2          1.3         0.2
##  4          4.6         3.1          1.5         0.2
##  5          5           3.6          1.4         0.2
##  6          5.4         3.9          1.7         0.4
##  7          4.6         3.4          1.4         0.3
##  8          5           3.4          1.5         0.2
##  9          4.4         2.9          1.4         0.2
## 10          4.9         3.1          1.5         0.1
## # … with 140 more rows, and 1 more variable:
## #   Species <fct>
…
