Additional R Code for Chapter 4 of Introduction to Data Mining: Classification: Deep Learning with Keras
…
##  Conflicts  tidyverse_conflicts() 
## x dplyr::filter() masks stats::filter()
## x dplyr::lag()    masks stats::lag()

Load and prepare the data set

data(Zoo, package = "mlbench")
Zoo <- as_tibble(Zoo)
Zoo

## # A tibble: 101 x 17
##    hair  feathers eggs  milk  airborne aquatic predator toothed backbone
##    <lgl> <lgl>    <lgl> <lgl> <lgl>    <lgl>   <lgl>    <lgl>   <lgl>   
##  1 TRUE  FALSE    FALSE TRUE  FALSE    FALSE   TRUE     TRUE    TRUE    
##  2 TRUE  FALSE    FALSE TRUE  FALSE    FALSE   FALSE    TRUE    TRUE    
##  3 FALSE FALSE    TRUE  FALSE FALSE    TRUE    TRUE     TRUE    TRUE    
##  4 TRUE  FALSE    FALSE TRUE  FALSE    FALSE   TRUE     TRUE    TRUE    
##  5 TRUE  FALSE    FALSE TRUE  FALSE    FALSE   TRUE     TRUE    TRUE    
##  6 TRUE  FALSE    FALSE TRUE  FALSE    FALSE   FALSE    TRUE    TRUE    
##  7 TRUE  FALSE    FALSE TRUE  FALSE    FALSE   FALSE    TRUE    TRUE    
##  8 FALSE FALSE    TRUE  FALSE FALSE    TRUE    FALSE    TRUE    TRUE    
##  9 FALSE FALSE    TRUE  FALSE FALSE    TRUE    TRUE     TRUE    TRUE    
## 10 TRUE  FALSE    FALSE TRUE  FALSE    FALSE   FALSE    TRUE    TRUE    
## #  with 91 more rows, and 8 more variables: breathes <lgl>, venomous <lgl>,
## #   fins <lgl>, legs <int>, tail <lgl>, domestic <lgl>, catsize <lgl>,
## #   type <fct>
…
