Chapter 2 Data | R Code Companion for the Textbook Introduction to Data Mining
…
Packages used for this chapter: arules (Hahsler et al. 2021), caret (Kuhn 2021), factoextra (Kassambara and Mundt 2020), GGally (Schloerke et al. 2021), plotly (Sievert et al. 2021), proxy (Meyer and Buchta 2021), sampling (Tillé and Matei 2021), seriation (Hahsler, Buchta, and Hornik 2021), tidyverse (Wickham 2021c)

2.1 The Iris Dataset

We will use a toy dataset that comes with R. Fisher’s iris data set gives the measurements in centimeters of the variables sepal length and width and petal length and width, respectively, for 50 flowers from each of 3 species of iris. The species are Iris setosa, versicolor, and virginica.
For more details see: ? iris

Load the iris data set and convert the data.frame into a tibble. Note: datasets that come with R or R packages can be loaded with data().

library(tidyverse)
data(iris)
iris <- as_tibble(iris)
iris

## # A tibble: 150 x 5
##    Sepal.Length Sepal.Width Petal.Length Petal.Width
##           <dbl>       <dbl>        <dbl>       <dbl>
##  1          5.1         3.5          1.4         0.2
##  2          4.9         3            1.4         0.2
##  3          4.7         3.2          1.3         0.2
##  4          4.6         3.1          1.5         0.2
##  5          5           3.6          1.4         0.2
##  6          5.4         3.9          1.7         0.4
##  7          4.6         3.4          1.4         0.3
##  8          5           3.4          1.5         0.2
##  9          4.4         2.9          1.4         0.2
## 10          4.9         3.1          1.5         0.1
## # … with 140 more rows, and 1 more variable:
## #   Species <fct>
…
2.5.4 Standardize Data (Z-Scores)

Standardize the scale of features to make them comparable. For each
column the mean is subtracted (centering) and it is divided by the
standard deviation (scaling). Now most values should be in [-3,3].

Note: tidyverse currently does not have a simple scale function,
so I make one that provides a wrapper for the standard scale function in R:

scale_numeric <- function(x) x %>% mutate_if(is.numeric, function(y) as.vector(scale(y)))

iris.scaled <- iris %>% scale_numeric()
iris.scaled

## # A tibble: 150 x 5
##    Sepal.Length Sepal.Width Petal.Length Petal.Width
##           <dbl>       <dbl>        <dbl>       <dbl>
##  1       -0.898      1.02          -1.34       -1.31
##  2       -1.14      -0.132         -1.34       -1.31
##  3       -1.38       0.327         -1.39       -1.31
##  4       -1.50       0.0979        -1.28       -1.31
##  5       -1.02       1.25          -1.34       -1.31
##  6       -0.535      1.93          -1.17       -1.05
##  7       -1.50       0.786         -1.34       -1.18
##  8       -1.02       0.786         -1.28       -1.31
##  9       -1.74      -0.361         -1.34       -1.31
## 10       -1.14       0.0979        -1.28       -1.44
## # … with 140 more rows, and 1 more variable:
## #   Species <fct>
…
2.7.2 Rank Correlation

Rank correlation is used for ordinal features.
To show this, we first convert the continuous features in Iris into
ordered factors with three levels using the function cut.

iris_ord <- iris %>% mutate_if(is.numeric,
  function(x) cut(x, 3, labels = c("short", "medium", "long"), ordered = TRUE))

iris_ord

## # A tibble: 150 x 5
##    Sepal.Length Sepal.Width Petal.Length Petal.Width
##    <ord>        <ord>       <ord>        <ord>      
##  1 short        medium      short        short      
##  2 short        medium      short        short      
##  3 short        medium      short        short      
##  4 short        medium      short        short      
##  5 short        medium      short        short      
##  6 short        long        short        short      
##  7 short        medium      short        short      
##  8 short        medium      short        short      
##  9 short        medium      short        short      
## 10 short        medium      short        short      
## # … with 140 more rows, and 1 more variable:
## #   Species <fct>
…
2.9.1 Basic statistics

Load the iris data set.

data(iris)

Fisher’s iris data set gives the measurements in centimeters of the variables sepal length and width and petal length and width, respectively, for 50 flowers from each of 3 species of iris. The species are Iris setosa, versicolor, and virginica.

We convert the data.frame into a tidyerse tibble. This is optional, tidyverse can work directly with data.frames.

iris <- as_tibble(iris)

iris

## # A tibble: 150 x 5
##    Sepal.Length Sepal.Width Petal.Length Petal.Width
##           <dbl>       <dbl>        <dbl>       <dbl>
##  1          5.1         3.5          1.4         0.2
##  2          4.9         3            1.4         0.2
##  3          4.7         3.2          1.3         0.2
##  4          4.6         3.1          1.5         0.2
##  5          5           3.6          1.4         0.2
##  6          5.4         3.9          1.7         0.4
##  7          4.6         3.4          1.4         0.3
##  8          5           3.4          1.5         0.2
##  9          4.4         2.9          1.4         0.2
## 10          4.9         3.1          1.5         0.1
## # … with 140 more rows, and 1 more variable:
## #   Species <fct>
…
## # A tibble: 3 x 2
##   Species        n
##   <fct>      <int>
## 1 setosa        50
## 2 versicolor    50
## 3 virginica     50

Discretize the data first since there are too many values (cut divides the range by breaks, see package discretization for other methods)

iris_discrete <- iris %>% mutate_if(is.numeric,
  function(x) cut(x, 3, labels = c("short", "medium", "long"), ordered = TRUE))

iris_discrete

## # A tibble: 150 x 5
##    Sepal.Length Sepal.Width Petal.Length Petal.Width
##    <ord>        <ord>       <ord>        <ord>      
##  1 short        medium      short        short      
##  2 short        medium      short        short      
##  3 short        medium      short        short      
##  4 short        medium      short        short      
##  5 short        medium      short        short      
##  6 short        long        short        short      
##  7 short        medium      short        short      
##  8 short        medium      short        short      
##  9 short        medium      short        short      
## 10 short        medium      short        short      
## # … with 140 more rows, and 1 more variable:
## #   Species <fct>
…
