Chapter 4 Classification: Alternative Techniques | R Companion for the Textbook Introduction to Data Mining
…
Show fewer digits

options(digits=3)

4.1 Training and Test Data

We will use the Zoo dataset which is included in the R package mlbench (you may have to install it).
The Zoo dataset containing 17 (mostly logical) variables on different 101 animals as a
data frame with 17 columns (hair, feathers, eggs, milk, airborne, aquatic, predator, toothed, backbone, breathes, venomous, fins, legs, tail, domestic, catsize, type). We convert the data frame into a tidyverse tibble (optional).

data(Zoo, package="mlbench")
Zoo <- as_tibble(Zoo)
Zoo

## # A tibble: 101 x 17
##    hair  feathers eggs  milk  airborne aquatic predator
##    <lgl> <lgl>    <lgl> <lgl> <lgl>    <lgl>   <lgl>   
##  1 TRUE  FALSE    FALSE TRUE  FALSE    FALSE   TRUE    
##  2 TRUE  FALSE    FALSE TRUE  FALSE    FALSE   FALSE   
##  3 FALSE FALSE    TRUE  FALSE FALSE    TRUE    TRUE    
##  4 TRUE  FALSE    FALSE TRUE  FALSE    FALSE   TRUE    
##  5 TRUE  FALSE    FALSE TRUE  FALSE    FALSE   TRUE    
##  6 TRUE  FALSE    FALSE TRUE  FALSE    FALSE   FALSE   
##  7 TRUE  FALSE    FALSE TRUE  FALSE    FALSE   FALSE   
##  8 FALSE FALSE    TRUE  FALSE FALSE    TRUE    FALSE   
##  9 FALSE FALSE    TRUE  FALSE FALSE    TRUE    TRUE    
## 10 TRUE  FALSE    FALSE TRUE  FALSE    FALSE   FALSE   
## # … with 91 more rows, and 10 more variables:
## #   toothed <lgl>, backbone <lgl>, breathes <lgl>,
## #   venomous <lgl>, fins <lgl>, legs <int>,
## #   tail <lgl>, domestic <lgl>, catsize <lgl>,
## #   type <fct>
…
4.5.1 Iris Dataset

For easier visualization, we use on two dimensions of the Iris dataset.

set.seed(1000)
data(iris)
iris <- as_tibble(iris)

### Three classes (MASS also has a select function)
x <- iris %>% dplyr::select(Sepal.Length, Sepal.Width, Species)
x

## # A tibble: 150 x 3
##    Sepal.Length Sepal.Width Species
##           <dbl>       <dbl> <fct>  
##  1          5.1         3.5 setosa 
##  2          4.9         3   setosa 
##  3          4.7         3.2 setosa 
##  4          4.6         3.1 setosa 
##  5          5           3.6 setosa 
##  6          5.4         3.9 setosa 
##  7          4.6         3.4 setosa 
##  8          5           3.4 setosa 
##  9          4.4         2.9 setosa 
## 10          4.9         3.1 setosa 
## # … with 140 more rows
…
This set is not linearly separable!

set.seed(1000)

library(mlbench)
x <- mlbench.circle(500)
###x <- mlbench.cassini(500)
###x <- mlbench.spirals(500, sd = .1)
###x <- mlbench.smiley(500)
x <- cbind(as.data.frame(x$x), factor(x$classes))
colnames(x) <- c("x", "y", "class")
x <- as_tibble(x)
x

## # A tibble: 500 x 3
##          x       y class
##      <dbl>   <dbl> <fct>
##  1 -0.344   0.448  1    
##  2  0.518   0.915  2    
##  3 -0.772  -0.0913 1    
##  4  0.382   0.412  1    
##  5  0.0328  0.438  1    
##  6 -0.865  -0.354  2    
##  7  0.477   0.640  2    
##  8  0.167  -0.809  2    
##  9 -0.568  -0.281  1    
## 10 -0.488   0.638  2    
## # … with 490 more rows
…
