Chapter 3 Classification: Basic Concepts | An R Companion for Introduction to Data Mining
…
Note: data.frames in R can have row names. The Zoo data set uses the
animal name as the row names. tibbles from tidyverse do not support
row names. To keep the animal name you can add a column with the animal
name.

library(tidyverse)
as_tibble(Zoo, rownames = "animal")
## # A tibble: 101 × 18
##    animal   hair  feathers eggs  milk  airborne aquatic
##    <chr>    <lgl> <lgl>    <lgl> <lgl> <lgl>    <lgl>  
##  1 aardvark TRUE  FALSE    FALSE TRUE  FALSE    FALSE  
##  2 antelope TRUE  FALSE    FALSE TRUE  FALSE    FALSE  
##  3 bass     FALSE FALSE    TRUE  FALSE FALSE    TRUE   
##  4 bear     TRUE  FALSE    FALSE TRUE  FALSE    FALSE  
##  5 boar     TRUE  FALSE    FALSE TRUE  FALSE    FALSE  
##  6 buffalo  TRUE  FALSE    FALSE TRUE  FALSE    FALSE  
##  7 calf     TRUE  FALSE    FALSE TRUE  FALSE    FALSE  
##  8 carp     FALSE FALSE    TRUE  FALSE FALSE    TRUE   
##  9 catfish  FALSE FALSE    TRUE  FALSE FALSE    TRUE   
## 10 cavy     TRUE  FALSE    FALSE TRUE  FALSE    FALSE  
## # ℹ 91 more rows
## # ℹ 11 more variables: predator <lgl>, toothed <lgl>,
## #   backbone <lgl>, breathes <lgl>, venomous <lgl>,
## #   fins <lgl>, legs <int>, tail <lgl>, domestic <lgl>,
## #   catsize <lgl>, type <fct>
…
Note: Some splits use multiple values. Building the tree will become
extremely slow if a factor has many levels (different values) since the
tree has to check all possible splits into two subsets. This situation
should be avoided.

Convert type into a set of 0-1 dummy variables using class2ind. See
also ? dummyVars in package caret.

Zoo_train_dummy <- as_tibble(class2ind(Zoo_train$type)) |> 
  mutate(across(everything(), as.factor)) |>
  add_column(predator = Zoo_train$predator)
Zoo_train_dummy
## # A tibble: 83 × 8
##    mammal bird  reptile fish  amphibian insect mollusc.et.al
##    <fct>  <fct> <fct>   <fct> <fct>     <fct>  <fct>        
##  1 1      0     0       0     0         0      0            
##  2 0      0     0       1     0         0      0            
##  3 1      0     0       0     0         0      0            
##  4 1      0     0       0     0         0      0            
##  5 1      0     0       0     0         0      0            
##  6 1      0     0       0     0         0      0            
##  7 0      0     0       1     0         0      0            
##  8 0      0     0       1     0         0      0            
##  9 1      0     0       0     0         0      0            
## 10 1      0     0       0     0         0      0            
## # ℹ 73 more rows
## # ℹ 1 more variable: predator <fct>
…
