Chapter 7 Cluster Analysis | An R Companion for Introduction to Data Mining
…
We will use here a small and very clean toy dataset called Ruspini which is
included in the R package cluster.

data(ruspini, package = "cluster")

The Ruspini data set, consisting of 75 points in four groups that is
popular for illustrating clustering techniques. It is a very simple data
set with well separated clusters. The original dataset has the points
ordered by group. We can shuffle the data (rows) using sample_frac
which samples by default 100%.

ruspini <- as_tibble(ruspini) |> 
  sample_frac()
ruspini
## # A tibble: 75 × 2
##        x     y
##    <int> <int>
##  1   115   117
##  2   111   126
##  3    85    96
##  4    12    88
##  5    36    72
##  6    28   147
##  7    24    58
##  8    99   128
##  9    46   142
## 10    38   151
## # ℹ 65 more rows
…
km is an R object implemented as a list. The clustering vector
contains the cluster assignment for each data row and can be accessed
using km$cluster. I add the cluster assignment as a column to the
scaled dataset (I make it a factor since it represents a nominal label).

ruspini_clustered <- ruspini_scaled |> 
  add_column(cluster = factor(km$cluster))
ruspini_clustered
## # A tibble: 75 × 3
##         x       y cluster
##     <dbl>   <dbl> <fct>  
##  1  1.97   0.513  2      
##  2  1.84   0.698  2      
##  3  0.987  0.0816 2      
##  4 -1.41  -0.0827 4      
##  5 -0.619 -0.411  4      
##  6 -0.881  1.13   1      
##  7 -1.01  -0.699  4      
##  8  1.45   0.739  2      
##  9 -0.291  1.03   1      
## 10 -0.553  1.21   1      
## # ℹ 65 more rows
…
7.2.0.1.2 Extract a single cluster

You need is to filter the rows corresponding to the cluster index. The
next example calculates summary statistics and then plots all data
points of cluster 1.

cluster1 <- ruspini_clustered |> 
  filter(cluster == 1)
cluster1
## # A tibble: 23 × 3
##           x     y cluster
##       <dbl> <dbl> <fct>  
##  1 -0.881   1.13  1      
##  2 -0.291   1.03  1      
##  3 -0.553   1.21  1      
##  4 -0.553   1.09  1      
##  5 -0.160   1.03  1      
##  6 -0.717   1.27  1      
##  7  0.00393 1.29  1      
##  8 -0.0944  1.23  1      
##  9 -0.750   1.17  1      
## 10 -0.0289  0.657 1      
## # ℹ 13 more rows
…
More plotting options for dendrograms, including plotting parts of large
dendrograms can be found here.

Extract cluster assignments by cutting the dendrogram into four parts
and add the cluster id to the data.

clusters <- cutree(hc, k = 4)
cluster_complete <- ruspini_scaled |>
  add_column(cluster = factor(clusters))
cluster_complete
## # A tibble: 75 × 3
##         x       y cluster
##     <dbl>   <dbl> <fct>  
##  1  1.97   0.513  1      
##  2  1.84   0.698  1      
##  3  0.987  0.0816 1      
##  4 -1.41  -0.0827 2      
##  5 -0.619 -0.411  2      
##  6 -0.881  1.13   3      
##  7 -1.01  -0.699  2      
##  8  1.45   0.739  1      
##  9 -0.291  1.03   3      
## 10 -0.553  1.21   3      
## # ℹ 65 more rows
…
