Chapter 7 Clustering Analysis | An R Companion for Introduction to Data Mining
…
7.1 Data Preparation

library(tidyverse)

We will use here a small and very clean dataset called Ruspini which is included in the R package cluster.

data(ruspini, package = "cluster")

The Ruspini data set, consisting of 75 points in four groups that is popular for illustrating clustering techniques. It is a very simple data set with well separated clusters.
The original dataset has the points ordered by group. We can shuffle the data (rows) using sample_frac which samples by default 100%.

ruspini <- as_tibble(ruspini) %>% sample_frac()
ruspini

## # A tibble: 75 × 2
##        x     y
##    <int> <int>
##  1    38   151
##  2    74    96
##  3    99   128
##  4    32   143
##  5    58    13
##  6    85   115
##  7    32   149
##  8    31    60
##  9    10    59
## 10   108   116
## # … with 65 more rows
…
km is an R object implemented as a list. The clustering vector contains the
cluster assignment for each data row and can be accessed using km$cluster. I add the
cluster assignment as a column to the scaled dataset (I make it a factor since it represents a
nominal label).

ruspini_clustered <- ruspini_scaled %>% add_column(cluster = factor(km$cluster))
ruspini_clustered

## # A tibble: 75 × 3
##         x       y cluster
##     <dbl>   <dbl> <fct>  
##  1 -0.553  1.21   1      
##  2  0.627  0.0816 2      
##  3  1.45   0.739  2      
##  4 -0.750  1.05   1      
##  5  0.102 -1.62   4      
##  6  0.987  0.472  2      
##  7 -0.750  1.17   1      
##  8 -0.783 -0.658  3      
##  9 -1.47  -0.678  3      
## 10  1.74   0.492  2      
## # … with 65 more rows
…
7.2.1.1.2 Extract a single cluster

You need is to filter the rows corresponding to the cluster index. The next
example calculates summary statistics and then plots all data points of cluster 1.

cluster1 <- ruspini_clustered %>% filter(cluster == 1)
cluster1

## # A tibble: 23 × 3
##           x     y cluster
##       <dbl> <dbl> <fct>  
##  1 -0.553   1.21  1      
##  2 -0.750   1.05  1      
##  3 -0.750   1.17  1      
##  4 -0.357   1.17  1      
##  5 -0.881   1.13  1      
##  6 -0.0289  0.657 1      
##  7 -0.553   1.05  1      
##  8  0.00393 1.29  1      
##  9 -0.160   1.03  1      
## 10 -0.0944  1.23  1      
## # … with 13 more rows
…
More plotting options for dendrograms, including plotting
parts of large dendrograms can be found here.

Extract cluster assignments by cutting the dendrogram into four parts and add the cluster id to the data.

clusters <- cutree(hc, k = 4)
cluster_complete <- ruspini_scaled %>%
  add_column(cluster = factor(clusters))
cluster_complete

## # A tibble: 75 × 3
##         x       y cluster
##     <dbl>   <dbl> <fct>  
##  1 -0.553  1.21   1      
##  2  0.627  0.0816 2      
##  3  1.45   0.739  2      
##  4 -0.750  1.05   1      
##  5  0.102 -1.62   3      
##  6  0.987  0.472  2      
##  7 -0.750  1.17   1      
##  8 -0.783 -0.658  4      
##  9 -1.47  -0.678  4      
## 10  1.74   0.492  2      
## # … with 65 more rows
…
