Chapter 2 Data | R Companion for the Textbook Introduction to Data Mining
…
Packages used for this chapter: arules (Hahsler, Buchta, Gruen, et al., 2021), caret (Kuhn, 2021), factoextra (Kassambara & Mundt, 2020), GGally (Schloerke et al., 2021), plotly (Sievert et al., 2021), proxy (Meyer & Buchta, 2021), sampling (Tillé & Matei, 2021), seriation (Hahsler, Buchta, & Hornik, 2021), tidyverse (Wickham, 2021c)

2.1 The Iris Dataset

We will use a toy dataset that comes with R. Fisher’s iris data set gives the measurements in centimeters of the variables sepal length and width and petal length and width, respectively, for 150 50 flowers from each of 3 species of iris. The species are Iris Setosa, Iris Versicolor, and Iris Virginica.
For more details see: ? iris

Load the iris data set and convert the data.frame into a tibble. Note: datasets that come with R or R packages can be loaded with data().

library(tidyverse)
data(iris)
iris <- as_tibble(iris)
iris

## # A tibble: 150 x 5
##    Sepal.Length Sepal.Width Petal.Length Petal.Width
##           <dbl>       <dbl>        <dbl>       <dbl>
##  1          5.1         3.5          1.4         0.2
##  2          4.9         3            1.4         0.2
##  3          4.7         3.2          1.3         0.2
##  4          4.6         3.1          1.5         0.2
##  5          5           3.6          1.4         0.2
##  6          5.4         3.9          1.7         0.4
##  7          4.6         3.4          1.4         0.3
##  8          5           3.4          1.5         0.2
##  9          4.4         2.9          1.4         0.2
## 10          4.9         3.1          1.5         0.1
## # … with 140 more rows, and 1 more variable:
## #   Species <fct>

We see that the data contains 150 rows (flowers) and 5 features. tibbles only show the first few rows and do not show all features, if they do not fit the screen width. We can force print to show all features by changing the width.

print(iris, width = Inf)

## # A tibble: 150 x 5
##    Sepal.Length Sepal.Width Petal.Length Petal.Width
##           <dbl>       <dbl>        <dbl>       <dbl>
##  1          5.1         3.5          1.4         0.2
##  2          4.9         3            1.4         0.2
##  3          4.7         3.2          1.3         0.2
##  4          4.6         3.1          1.5         0.2
##  5          5           3.6          1.4         0.2
##  6          5.4         3.9          1.7         0.4
##  7          4.6         3.4          1.4         0.3
##  8          5           3.4          1.5         0.2
##  9          4.4         2.9          1.4         0.2
## 10          4.9         3.1          1.5         0.1
##    Species
##    <fct>  
##  1 setosa 
##  2 setosa 
##  3 setosa 
##  4 setosa 
##  5 setosa 
##  6 setosa 
##  7 setosa 
##  8 setosa 
##  9 setosa 
## 10 setosa 
## # … with 140 more rows
…
Standardizing (scaling, normalizing) the range of features values to make them comparable.
The most popular method is to convert the values of each feature to z-scores.
by subtracting the mean (centering) and dividing by the
standard deviation (scaling).

Note: tidyverse currently does not have a simple scale function,
so I make one that provides a wrapper for the standard scale function in R:

scale_numeric <- function(x) x %>% mutate_if(is.numeric, function(y) as.vector(scale(y)))

iris.scaled <- iris %>% scale_numeric()
iris.scaled

## # A tibble: 150 x 5
##    Sepal.Length Sepal.Width Petal.Length Petal.Width
##           <dbl>       <dbl>        <dbl>       <dbl>
##  1       -0.898      1.02          -1.34       -1.31
##  2       -1.14      -0.132         -1.34       -1.31
##  3       -1.38       0.327         -1.39       -1.31
##  4       -1.50       0.0979        -1.28       -1.31
##  5       -1.02       1.25          -1.34       -1.31
##  6       -0.535      1.93          -1.17       -1.05
##  7       -1.50       0.786         -1.34       -1.18
##  8       -1.02       0.786         -1.28       -1.31
##  9       -1.74      -0.361         -1.34       -1.31
## 10       -1.14       0.0979        -1.28       -1.44
## # … with 140 more rows, and 1 more variable:
## #   Species <fct>
…
{ r} ggplot(iris, aes(Sepal.Length, Sepal.Width)) + geom_point() +   geom_smooth(method = "lm") with(iris, cor(Sepal.Length, Sepal.Width)) with(iris, cor.test(Sepal.Length, Sepal.Width))

2.7.2 Rank Correlation

Rank correlation is used for ordinal features.
To show this, we first convert the continuous features in the Iris dataset into
ordered factors (ordinal) with three levels using the function cut.

iris_ord <- iris %>% mutate_if(is.numeric,
  function(x) cut(x, 3, labels = c("short", "medium", "long"), ordered = TRUE))

iris_ord

## # A tibble: 150 x 5
##    Sepal.Length Sepal.Width Petal.Length Petal.Width
##    <ord>        <ord>       <ord>        <ord>      
##  1 short        medium      short        short      
##  2 short        medium      short        short      
##  3 short        medium      short        short      
##  4 short        medium      short        short      
##  5 short        medium      short        short      
##  6 short        long        short        short      
##  7 short        medium      short        short      
##  8 short        medium      short        short      
##  9 short        medium      short        short      
## 10 short        medium      short        short      
## # … with 140 more rows, and 1 more variable:
## #   Species <fct>
…
In base R, this can be also done using count(iris$Species).

We discretize the data using cut.

iris_ord <- iris %>% mutate_if(is.numeric,
  function(x) cut(x, 3, labels = c("short", "medium", "long"), ordered = TRUE))

iris_ord

## # A tibble: 150 x 5
##    Sepal.Length Sepal.Width Petal.Length Petal.Width
##    <ord>        <ord>       <ord>        <ord>      
##  1 short        medium      short        short      
##  2 short        medium      short        short      
##  3 short        medium      short        short      
##  4 short        medium      short        short      
##  5 short        medium      short        short      
##  6 short        long        short        short      
##  7 short        medium      short        short      
##  8 short        medium      short        short      
##  9 short        medium      short        short      
## 10 short        medium      short        short      
## # … with 140 more rows, and 1 more variable:
## #   Species <fct>
…
