A Data Exploration and Visualization | An R Companion for Introduction to Data Mining
…
palmerpenguins (Horst, Hill, and Gorman 2022)

plotly (Sievert et al. 2025)

seriation (Hahsler, Buchta, and Hornik 2025)

tidyverse (Wickham 2023b)

We will use again the iris dataset.

library(tidyverse)
data(iris)
iris <- as_tibble(iris)
iris
## # A tibble: 150 × 5
##    Sepal.Length Sepal.Width Petal.Length Petal.Width Species
##           <dbl>       <dbl>        <dbl>       <dbl> <fct>  
##  1          5.1         3.5          1.4         0.2 setosa 
##  2          4.9         3            1.4         0.2 setosa 
##  3          4.7         3.2          1.3         0.2 setosa 
##  4          4.6         3.1          1.5         0.2 setosa 
##  5          5           3.6          1.4         0.2 setosa 
##  6          5.4         3.9          1.7         0.4 setosa 
##  7          4.6         3.4          1.4         0.3 setosa 
##  8          5           3.4          1.5         0.2 setosa 
##  9          4.4         2.9          1.4         0.2 setosa 
## 10          4.9         3.1          1.5         0.1 setosa 
## # ℹ 140 more rows
…
In base R, this can be also done using count(iris$Species).

For the following examples, we discretize the data using cut.

iris_ord <- iris |> 
  mutate(across(where(is.numeric),  
    function(x) cut(x, 3, labels = c("short", "medium", "long"), 
                    ordered = TRUE)))

iris_ord
## # A tibble: 150 × 5
##    Sepal.Length Sepal.Width Petal.Length Petal.Width Species
##    <ord>        <ord>       <ord>        <ord>       <fct>  
##  1 short        medium      short        short       setosa 
##  2 short        medium      short        short       setosa 
##  3 short        medium      short        short       setosa 
##  4 short        medium      short        short       setosa 
##  5 short        medium      short        short       setosa 
##  6 short        long        short        short       setosa 
##  7 short        medium      short        short       setosa 
##  8 short        medium      short        short       setosa 
##  9 short        medium      short        short       setosa 
## 10 short        medium      short        short       setosa 
## # ℹ 140 more rows
…
A.1.5.2 Rank Correlation

Rank correlation is used for ordinal features or if the correlation is
not linear. To show this, we first convert the continuous features in
the Iris dataset into ordered factors (ordinal) with three levels using
the function cut.

iris_ord <- iris |> 
  mutate(across(where(is.numeric), 
    function(x) cut(x, 3, 
                    labels = c("short", "medium", "long"), 
                    ordered = TRUE)))

iris_ord
## # A tibble: 150 × 5
##    Sepal.Length Sepal.Width Petal.Length Petal.Width Species
##    <ord>        <ord>       <ord>        <ord>       <fct>  
##  1 short        medium      short        short       setosa 
##  2 short        medium      short        short       setosa 
##  3 short        medium      short        short       setosa 
##  4 short        medium      short        short       setosa 
##  5 short        medium      short        short       setosa 
##  6 short        long        short        short       setosa 
##  7 short        medium      short        short       setosa 
##  8 short        medium      short        short       setosa 
##  9 short        medium      short        short       setosa 
## 10 short        medium      short        short       setosa 
## # ℹ 140 more rows
…
