…
We load the iris data set. Datasets that come with R or R packages can
be loaded with `data()`. The standard format for data in R is a
data.frame. We convert the data.frame into a tidyverse tibble.


``` r
library(tidyverse)
data(iris)
iris <- as_tibble(iris)
iris
## # A tibble: 150 x 5
##    Sepal.Length Sepal.Width Petal.Length Petal.Width Species
##           <dbl>       <dbl>        <dbl>       <dbl> <fct>  
##  1          5.1         3.5          1.4         0.2 setosa 
##  2          4.9         3            1.4         0.2 setosa 
##  3          4.7         3.2          1.3         0.2 setosa 
##  4          4.6         3.1          1.5         0.2 setosa 
##  5          5           3.6          1.4         0.2 setosa 
##  6          5.4         3.9          1.7         0.4 setosa 
##  7          4.6         3.4          1.4         0.3 setosa 
##  8          5           3.4          1.5         0.2 setosa 
##  9          4.4         2.9          1.4         0.2 setosa 
## 10          4.9         3.1          1.5         0.1 setosa 
## # i 140 more rows
```

We see that the data contains 150 rows (flowers) and 5 features. tibbles
only show the first few rows and do not show all features, if they do
not fit the screen width. We can call `print` and define how many rows
to show using parameter `n` and force print to show all features by
changing the `width` to infinity.


``` r
print(iris, n = 3, width = Inf)
## # A tibble: 150 x 5
##   Sepal.Length Sepal.Width Petal.Length Petal.Width Species
##          <dbl>       <dbl>        <dbl>       <dbl> <fct>  
## 1          5.1         3.5          1.4         0.2 setosa 
## 2          4.9         3            1.4         0.2 setosa 
## 3          4.7         3.2          1.3         0.2 setosa 
## # i 147 more rows
```
…
``` r
scale_numeric <- function(x) 
  x |> 
  mutate(across(where(is.numeric), 
                function(y) (y - mean(y, na.rm = TRUE)) / sd(y, na.rm = TRUE)))
```


``` r
iris.scaled <- iris |> 
  scale_numeric()
iris.scaled
## # A tibble: 150 x 5
##    Sepal.Length Sepal.Width Petal.Length Petal.Width Species
##           <dbl>       <dbl>        <dbl>       <dbl> <fct>  
##  1       -0.898      1.02          -1.34       -1.31 setosa 
##  2       -1.14      -0.132         -1.34       -1.31 setosa 
##  3       -1.38       0.327         -1.39       -1.31 setosa 
##  4       -1.50       0.0979        -1.28       -1.31 setosa 
##  5       -1.02       1.25          -1.34       -1.31 setosa 
##  6       -0.535      1.93          -1.17       -1.05 setosa 
##  7       -1.50       0.786         -1.34       -1.18 setosa 
##  8       -1.02       0.786         -1.28       -1.31 setosa 
##  9       -1.74      -0.361         -1.34       -1.31 setosa 
## 10       -1.14       0.0979        -1.28       -1.44 setosa 
## # i 140 more rows
```
…
The following code covers the important part of 
data exploration. For space reasons, this chapter was moved from the
printed textbook to this 
[Data Exploration Web Chapter.](https://www-users.cse.umn.edu/~kumar001/dmbook/data_exploration_1st_edition.pdf)

We will use again the iris dataset.


``` r
library(tidyverse)
data(iris)
iris <- as_tibble(iris)
iris
## # A tibble: 150 x 5
##    Sepal.Length Sepal.Width Petal.Length Petal.Width Species
##           <dbl>       <dbl>        <dbl>       <dbl> <fct>  
##  1          5.1         3.5          1.4         0.2 setosa 
##  2          4.9         3            1.4         0.2 setosa 
##  3          4.7         3.2          1.3         0.2 setosa 
##  4          4.6         3.1          1.5         0.2 setosa 
##  5          5           3.6          1.4         0.2 setosa 
##  6          5.4         3.9          1.7         0.4 setosa 
##  7          4.6         3.4          1.4         0.3 setosa 
##  8          5           3.4          1.5         0.2 setosa 
##  9          4.4         2.9          1.4         0.2 setosa 
## 10          4.9         3.1          1.5         0.1 setosa 
## # i 140 more rows
```
…
In base R, this can be also done using `count(iris$Species)`.

For the following examples, we discretize the data using cut.


``` r
iris_ord <- iris |> 
  mutate(across(where(is.numeric),  
    function(x) cut(x, 3, labels = c("short", "medium", "long"), 
                    ordered = TRUE)))

iris_ord
## # A tibble: 150 x 5
##    Sepal.Length Sepal.Width Petal.Length Petal.Width Species
##    <ord>        <ord>       <ord>        <ord>       <fct>  
##  1 short        medium      short        short       setosa 
##  2 short        medium      short        short       setosa 
##  3 short        medium      short        short       setosa 
##  4 short        medium      short        short       setosa 
##  5 short        medium      short        short       setosa 
##  6 short        long        short        short       setosa 
##  7 short        medium      short        short       setosa 
##  8 short        medium      short        short       setosa 
##  9 short        medium      short        short       setosa 
## 10 short        medium      short        short       setosa 
## # i 140 more rows
```
…
Rank correlation is used for ordinal features or if the correlation is
not linear. To show this, we first convert the continuous features in
the Iris dataset into ordered factors (ordinal) with three levels using
the function `cut`.


``` r
iris_ord <- iris |> 
  mutate(across(where(is.numeric), 
    function(x) cut(x, 3, 
                    labels = c("short", "medium", "long"), 
                    ordered = TRUE)))

iris_ord
## # A tibble: 150 x 5
##    Sepal.Length Sepal.Width Petal.Length Petal.Width Species
##    <ord>        <ord>       <ord>        <ord>       <fct>  
##  1 short        medium      short        short       setosa 
##  2 short        medium      short        short       setosa 
##  3 short        medium      short        short       setosa 
##  4 short        medium      short        short       setosa 
##  5 short        medium      short        short       setosa 
##  6 short        long        short        short       setosa 
##  7 short        medium      short        short       setosa 
##  8 short        medium      short        short       setosa 
##  9 short        medium      short        short       setosa 
## 10 short        medium      short        short       setosa 
## # i 140 more rows
```
…
*Note:* data.frames in R can have row names. The Zoo data set uses the
animal name as the row names. tibbles from `tidyverse` do not support
row names. To keep the animal name you can add a column with the animal
name.


``` r
library(tidyverse)
as_tibble(Zoo, rownames = "animal")
## # A tibble: 101 x 18
##    animal   hair  feathers eggs  milk  airborne aquatic
##    <chr>    <lgl> <lgl>    <lgl> <lgl> <lgl>    <lgl>  
##  1 aardvark TRUE  FALSE    FALSE TRUE  FALSE    FALSE  
##  2 antelope TRUE  FALSE    FALSE TRUE  FALSE    FALSE  
##  3 bass     FALSE FALSE    TRUE  FALSE FALSE    TRUE   
##  4 bear     TRUE  FALSE    FALSE TRUE  FALSE    FALSE  
##  5 boar     TRUE  FALSE    FALSE TRUE  FALSE    FALSE  
##  6 buffalo  TRUE  FALSE    FALSE TRUE  FALSE    FALSE  
##  7 calf     TRUE  FALSE    FALSE TRUE  FALSE    FALSE  
##  8 carp     FALSE FALSE    TRUE  FALSE FALSE    TRUE   
##  9 catfish  FALSE FALSE    TRUE  FALSE FALSE    TRUE   
## 10 cavy     TRUE  FALSE    FALSE TRUE  FALSE    FALSE  
## # i 91 more rows
## # i 11 more variables: predator <lgl>, toothed <lgl>,
## #   backbone <lgl>, breathes <lgl>, venomous <lgl>,
## #   fins <lgl>, legs <int>, tail <lgl>, domestic <lgl>,
## #   catsize <lgl>, type <fct>
```
…
**Note:** Some splits use multiple values. Building the tree will become
extremely slow if a factor has many levels (different values) since the
tree has to check all possible splits into two subsets. This situation
should be avoided.

Convert type into a set of 0-1 dummy variables using `class2ind`. See
also `? dummyVars` in package `caret`.


``` r
Zoo_train_dummy <- as_tibble(class2ind(Zoo_train$type)) |> 
  mutate(across(everything(), as.factor)) |>
  add_column(predator = Zoo_train$predator)
Zoo_train_dummy
## # A tibble: 83 x 8
##    mammal bird  reptile fish  amphibian insect mollusc.et.al
##    <fct>  <fct> <fct>   <fct> <fct>     <fct>  <fct>        
##  1 1      0     0       0     0         0      0            
##  2 0      0     0       1     0         0      0            
##  3 1      0     0       0     0         0      0            
##  4 1      0     0       0     0         0      0            
##  5 1      0     0       0     0         0      0            
##  6 1      0     0       0     0         0      0            
##  7 0      0     0       1     0         0      0            
##  8 0      0     0       1     0         0      0            
##  9 1      0     0       0     0         0      0            
## 10 1      0     0       0     0         0      0            
## # i 73 more rows
## # i 1 more variable: predator <fct>
```
…
``` r
library(tidyverse)
data(Zoo, package = "mlbench")

Zoo <- as_tibble(Zoo)
Zoo
## # A tibble: 101 x 17
##    hair  feathers eggs  milk  airborne aquatic predator
##    <lgl> <lgl>    <lgl> <lgl> <lgl>    <lgl>   <lgl>   
##  1 TRUE  FALSE    FALSE TRUE  FALSE    FALSE   TRUE    
##  2 TRUE  FALSE    FALSE TRUE  FALSE    FALSE   FALSE   
##  3 FALSE FALSE    TRUE  FALSE FALSE    TRUE    TRUE    
##  4 TRUE  FALSE    FALSE TRUE  FALSE    FALSE   TRUE    
##  5 TRUE  FALSE    FALSE TRUE  FALSE    FALSE   TRUE    
##  6 TRUE  FALSE    FALSE TRUE  FALSE    FALSE   FALSE   
##  7 TRUE  FALSE    FALSE TRUE  FALSE    FALSE   FALSE   
##  8 FALSE FALSE    TRUE  FALSE FALSE    TRUE    FALSE   
##  9 FALSE FALSE    TRUE  FALSE FALSE    TRUE    TRUE    
## 10 TRUE  FALSE    FALSE TRUE  FALSE    FALSE   FALSE   
## # i 91 more rows
## # i 10 more variables: toothed <lgl>, backbone <lgl>,
## #   breathes <lgl>, venomous <lgl>, fins <lgl>, legs <int>,
## #   tail <lgl>, domestic <lgl>, catsize <lgl>, type <fct>
```
…
### Iris Dataset

For easier visualization, we use two dimensions of the Iris dataset.


``` r
set.seed(1000)
data(iris)
iris <- as_tibble(iris)

x <- iris |> dplyr::select(Sepal.Length, Sepal.Width, Species)
# Note: package MASS overwrites the select function.

x
## # A tibble: 150 x 3
##    Sepal.Length Sepal.Width Species
##           <dbl>       <dbl> <fct>  
##  1          5.1         3.5 setosa 
##  2          4.9         3   setosa 
##  3          4.7         3.2 setosa 
##  4          4.6         3.1 setosa 
##  5          5           3.6 setosa 
##  6          5.4         3.9 setosa 
##  7          4.6         3.4 setosa 
##  8          5           3.4 setosa 
##  9          4.4         2.9 setosa 
## 10          4.9         3.1 setosa 
## # i 140 more rows
```
…
``` r
set.seed(1000)

x <- mlbench::mlbench.circle(500)

# You can also experiment with the following datasets.
#x <- mlbench::mlbench.cassini(500)
#x <- mlbench::mlbench.spirals(500, sd = .1)
#x <- mlbench::mlbench.smiley(500)

x <- cbind(as.data.frame(x$x), factor(x$classes))
colnames(x) <- c("x", "y", "class")
x <- as_tibble(x)
x
## # A tibble: 500 x 3
##          x       y class
##      <dbl>   <dbl> <fct>
##  1 -0.344   0.448  1    
##  2  0.518   0.915  2    
##  3 -0.772  -0.0913 1    
##  4  0.382   0.412  1    
##  5  0.0328  0.438  1    
##  6 -0.865  -0.354  2    
##  7  0.477   0.640  2    
##  8  0.167  -0.809  2    
##  9 -0.568  -0.281  1    
## 10 -0.488   0.638  2    
## # i 490 more rows
```
…
The Ruspini data set, consisting of 75 points in four groups that is
popular for illustrating clustering techniques. It is a very simple data
set with well separated clusters. The original dataset has the points
ordered by group. We can shuffle the data (rows) using `sample_frac`
which samples by default 100%.


``` r
ruspini <- as_tibble(ruspini) |> 
  sample_frac()
ruspini
## # A tibble: 75 x 2
##        x     y
##    <int> <int>
##  1    66    18
##  2    32   143
##  3    28    76
##  4    38   143
##  5    41   150
##  6   108   116
##  7   110   111
##  8   115   117
##  9    35   153
## 10     9    77
## # i 65 more rows
```
…
`km` is an R object implemented as a list. The clustering vector
contains the cluster assignment for each data row and can be accessed
using `km$cluster`. I add the cluster assignment as a column to the
scaled dataset (I make it a factor since it represents a nominal label).


``` r
ruspini_clustered <- ruspini_scaled |> 
  add_column(cluster = factor(km$cluster))
ruspini_clustered
## # A tibble: 75 x 3
##         x      y cluster
##     <dbl>  <dbl> <fct>  
##  1  0.365 -1.52  1      
##  2 -0.750  1.05  3      
##  3 -0.881 -0.329 2      
##  4 -0.553  1.05  3      
##  5 -0.455  1.19  3      
##  6  1.74   0.492 4      
##  7  1.81   0.390 4      
##  8  1.97   0.513 4      
##  9 -0.652  1.25  3      
## 10 -1.50  -0.309 2      
## # i 65 more rows
```
…
More plotting options for dendrograms, including plotting parts of large
dendrograms can be found [here.](https://rpubs.com/gaston/dendrograms)

Extract cluster assignments by cutting the dendrogram into four parts
and add the cluster id to the data.


``` r
clusters <- cutree(hc, k = 4)
cluster_complete <- ruspini_scaled |>
  add_column(cluster = factor(clusters))
cluster_complete
## # A tibble: 75 x 3
##         x      y cluster
##     <dbl>  <dbl> <fct>  
##  1  0.365 -1.52  1      
##  2 -0.750  1.05  2      
##  3 -0.881 -0.329 3      
##  4 -0.553  1.05  2      
##  5 -0.455  1.19  2      
##  6  1.74   0.492 4      
##  7  1.81   0.390 4      
##  8  1.97   0.513 4      
##  9 -0.652  1.25  2      
## 10 -1.50  -0.309 3      
## # i 65 more rows
```
…
