2.5 Features | R Code Companion for the Textbook Introduction to Data Mining
…
2.5.4 Standardize Data (Z-Scores)

Standardize the scale of features to make them comparable. For each
column the mean is subtracted (centering) and it is divided by the
standard deviation (scaling). Now most values should be in [-3,3].

Note: tidyverse currently does not have a simple scale function,
so I make one that provides a wrapper for the standard scale function in R:

scale_numeric <- function(x) x %>% mutate_if(is.numeric, function(y) as.vector(scale(y)))

iris.scaled <- iris %>% scale_numeric()
iris.scaled

## # A tibble: 150 x 5
##    Sepal.Length Sepal.Width Petal.Length Petal.Width
##           <dbl>       <dbl>        <dbl>       <dbl>
##  1       -0.898      1.02          -1.34       -1.31
##  2       -1.14      -0.132         -1.34       -1.31
##  3       -1.38       0.327         -1.39       -1.31
##  4       -1.50       0.0979        -1.28       -1.31
##  5       -1.02       1.25          -1.34       -1.31
##  6       -0.535      1.93          -1.17       -1.05
##  7       -1.50       0.786         -1.34       -1.18
##  8       -1.02       0.786         -1.28       -1.31
##  9       -1.74      -0.361         -1.34       -1.31
## 10       -1.14       0.0979        -1.28       -1.44
## # … with 140 more rows, and 1 more variable:
## #   Species <fct>
…
