2.7 Relationships Between Features | R Code Companion for the Textbook Introduction to Data Mining
…
2.7.2 Rank Correlation

Rank correlation is used for ordinal features.
To show this, we first convert the continuous features in Iris into
ordered factors with three levels using the function cut.

iris_ord <- iris %>% mutate_if(is.numeric,
  function(x) cut(x, 3, labels = c("short", "medium", "long"), ordered = TRUE))

iris_ord

## # A tibble: 150 x 5
##    Sepal.Length Sepal.Width Petal.Length Petal.Width
##    <ord>        <ord>       <ord>        <ord>      
##  1 short        medium      short        short      
##  2 short        medium      short        short      
##  3 short        medium      short        short      
##  4 short        medium      short        short      
##  5 short        medium      short        short      
##  6 short        long        short        short      
##  7 short        medium      short        short      
##  8 short        medium      short        short      
##  9 short        medium      short        short      
## 10 short        medium      short        short      
## # … with 140 more rows, and 1 more variable:
## #   Species <fct>
…
