3.6 Feature Selection and Feature Preparation | R Code Companion for the Textbook Introduction to Data Mining
…
Note: Some splits use multiple values. Building the tree will become
extremely slow if a factor has many levels (different values) since the tree has to check all possible splits into two subsets. This situation should be avoided.

Recode type as a set of 0-1 dummy variables using class2ind. See also
? dummyVars in package caret.

Zoo_train_dummy <- as_tibble(class2ind(Zoo_train$type)) %>% mutate_all(as.factor) %>%
  add_column(predator = Zoo_train$predator)
Zoo_train_dummy

## # A tibble: 83 x 8
##    mammal bird  reptile fish  amphibian insect
##    <fct>  <fct> <fct>   <fct> <fct>     <fct> 
##  1 1      0     0       0     0         0     
##  2 1      0     0       0     0         0     
##  3 0      0     0       1     0         0     
##  4 1      0     0       0     0         0     
##  5 1      0     0       0     0         0     
##  6 1      0     0       0     0         0     
##  7 0      0     0       1     0         0     
##  8 0      0     0       1     0         0     
##  9 1      0     0       0     0         0     
## 10 0      1     0       0     0         0     
## # … with 73 more rows, and 2 more variables:
## #   mollusc.et.al <fct>, predator <fct>
…
