7.2 Clustering methods | R Code Companion for the Textbook Introduction to Data Mining
…
km is an R object implemented as a list. The clustering vector contains the
cluster assignment for each data row and can be accessed using km$cluster. I add the
cluster assignment as a column to the scaled dataset (I make it a factor since it represents a
nominal label).

ruspini_clustered <- ruspini_scaled %>% add_column(cluster = factor(km$cluster))
ruspini_clustered

## # A tibble: 75 x 3
##          x      y cluster
##      <dbl>  <dbl> <fct>  
##  1 -0.553   1.05  2      
##  2 -0.816  -0.822 4      
##  3 -1.08   -0.370 4      
##  4  0.496  -1.81  3      
##  5  0.725  -1.64  3      
##  6 -1.21   -0.637 4      
##  7  0.987   0.472 1      
##  8 -0.685   1.01  2      
##  9 -0.0616  1.07  2      
## 10 -0.652   1.25  2      
## # … with 65 more rows
…
More plotting options for dendrograms, including plotting
parts of large dendrograms can be found here.

Extract cluster assignments by cutting the dendrogram into four parts and add the cluster id to the data.

clusters <- cutree(hc, k = 4)
cluster_complete <- ruspini_scaled %>%
  add_column(cluster = factor(clusters))
cluster_complete

## # A tibble: 75 x 3
##          x      y cluster
##      <dbl>  <dbl> <fct>  
##  1 -0.553   1.05  1      
##  2 -0.816  -0.822 2      
##  3 -1.08   -0.370 2      
##  4  0.496  -1.81  3      
##  5  0.725  -1.64  3      
##  6 -1.21   -0.637 2      
##  7  0.987   0.472 4      
##  8 -0.685   1.01  1      
##  9 -0.0616  1.07  1      
## 10 -0.652   1.25  1      
## # … with 65 more rows
…
